{
  "reportId": 1,
  "tableAmount": 1,
  "tables": [
    {
      "tableName": "CUSTOMER_ОЛОЛО",
      "columns": [
        {
          "title": "ID",
          "type": "BIGINT",
          "size": 1
        },
        {
          "title": "ИМЯ",
          "type": "CHARACTER VARYING(256)",
          "size": 1
        }
      ]
    }
  ]
}
