[
  {
    "queryId": 1,
    "tableName": "Artists",
    "query": "раз dva"
  },
  {
    "queryId": 2,
    "tableName": "Artists",
    "query": "select * from Artists"
  },
  {
    "queryId": 3,
    "tableName": "Customer",
    "query": "select * from Customer"
  }
]
