{
  "tableName": "Job",
  "columnsAmount": 4,
  "columnInfos": [
    {
      "title": "id",
      "type": "int4"
    },
    {
      "title": "name",
      "type": "varchar"
    },
    {
      "title": "salary",
      "type": "int4"
    },
    {
      "title": "address",
      "type": "varchar"
    }
  ],
  "primaryKey": "id"
}
